,sample,isomer_210,isomer_230,product_210,product_240,product_254
0,D:/Chemstation/1/Data/2023-10-24-pyrethroic acid-2_temp_15_injections-1\run_1.D,43.5458984375,30.6508083343506,8580.97265625,775.053894042969,0
0,D:/Chemstation/1/Data/2023-10-24-pyrethroic acid-2_temp_15_injections-1\run_2.D,44.0646896362305,30.8284492492676,8621.1484375,777.086120605469,0
0,D:/Chemstation/1/Data/2023-10-24-pyrethroic acid-2_temp_15_injections-1\run_3.D,43.6903953552246,30.4803199768067,8601.1572265625,771.621337890625,0
0,D:/Chemstation/1/Data/2023-10-24-pyrethroic acid-2_temp_15_injections-1\run_4.D,40.9111824035645,28.9677600860596,8422.2998046875,740.259826660157,0
0,D:/Chemstation/1/Data/2023-10-24-pyrethroic acid-2_temp_15_injections-1\run_5.D,42.4629898071289,29.9534015655518,8819.7001953125,769.89794921875,0
0,D:/Chemstation/1/Data/2023-10-24-pyrethroic acid-2_temp_15_injections-1\run_6.D,41.8027954101563,29.5518035888672,8772.0712890625,757.792358398438,0
0,D:/Chemstation/1/Data/2023-10-24-pyrethroic acid-2_temp_15_injections-1\run_7.D,42.9105186462403,30.0512466430664,8911.298828125,758.353393554688,0
0,D:/Chemstation/1/Data/2023-10-24-pyrethroic acid-2_temp_15_injections-1\run_8.D,42.310531616211,29.874626159668,8894.5634765625,758.754211425782,0
0,D:/Chemstation/1/Data/2023-10-24-pyrethroic acid-2_temp_15_injections-1\run_9.D,42.7548179626465,30.0294151306153,8936.0380859375,758.3212890625,0
0,D:/Chemstation/1/Data/2023-10-24-pyrethroic acid-2_temp_15_injections-1\run_10.D,0.0,0.0,0.0,0.0,0
0,D:/Chemstation/1/Data/2023-10-24-pyrethroic acid-2_temp_15_injections-1\run_11.D,0.0,0.0,0.0,0.0,0
0,D:/Chemstation/1/Data/2023-10-24-pyrethroic acid-2_temp_15_injections-1\run_12.D,0.0,0.0,0.0,0.0,0
0,D:/Chemstation/1/Data/2023-10-24-pyrethroic acid-2_temp_15_injections-1\run_13.D,39.4082450866699,27.997709274292,8723.232421875,750.525146484375,0
0,D:/Chemstation/1/Data/2023-10-24-pyrethroic acid-2_temp_15_injections-1\run_14.D,39.6414794921875,28.1106853485108,8901.80859375,753.017761230469,0
0,D:/Chemstation/1/Data/2023-10-24-pyrethroic acid-2_temp_15_injections-1\run_15.D,39.4317321777344,28.2065029144287,8930.9736328125,760.832458496094,0
0,D:/Chemstation/1/Data/2023-10-24-pyrethroic acid-2_temp_15_injections-1\run_16.D,38.7837219238281,24.6135196685791,1594.30651855469,135.138778686524,0
0,D:/Chemstation/1/Data/2023-10-24-pyrethroic acid-2_temp_15_injections-1\run_17.D,44.197380065918,27.683183670044,1749.22448730469,145.907836914063,0
0,D:/Chemstation/1/Data/2023-10-24-pyrethroic acid-2_temp_15_injections-1\run_18.D,40.5744094848633,25.571044921875,1603.2060546875,136.017669677735,0
0,D:/Chemstation/1/Data/2023-10-24-pyrethroic acid-2_temp_15_injections-1\run_19.D,37.2164916992188,23.5172348022461,1554.42370605469,131.492614746094,0
0,D:/Chemstation/1/Data/2023-10-24-pyrethroic acid-2_temp_15_injections-1\run_20.D,36.8686714172363,23.1956062316895,1542.32580566406,130.68278503418,0
0,D:/Chemstation/1/Data/2023-10-24-pyrethroic acid-2_temp_15_injections-1\run_21.D,36.9927864074707,24.0203800201416,1555.26171875,132.084762573242,0
0,D:/Chemstation/1/Data/2023-10-24-pyrethroic acid-2_temp_15_injections-1\run_22.D,44.815170288086,29.6192932128906,1970.17370605469,165.853652954102,0
0,D:/Chemstation/1/Data/2023-10-24-pyrethroic acid-2_temp_15_injections-1\run_23.D,56.3868637084961,36.9061393737793,2448.96655273438,208.400543212891,0
0,D:/Chemstation/1/Data/2023-10-24-pyrethroic acid-2_temp_15_injections-1\run_24.D,36.5844650268555,22.860631942749,1543.39294433594,132.589294433594,0
0,D:/Chemstation/1/Data/2023-10-24-pyrethroic acid-2_temp_15_injections-1\run_25.D,0.0,0.0,0.0,0.0,0
0,D:/Chemstation/1/Data/2023-10-24-pyrethroic acid-2_temp_15_injections-1\run_26.D,0.0,0.0,0.0,0.0,0
0,D:/Chemstation/1/Data/2023-10-24-pyrethroic acid-2_temp_15_injections-1\run_27.D,0.0,0.0,0.0,0.0,0
0,D:/Chemstation/1/Data/2023-10-24-pyrethroic acid-2_temp_15_injections-1\run_28.D,33.3205108642578,21.6591873168946,1532.80505371094,131.344329833985,0
0,D:/Chemstation/1/Data/2023-10-24-pyrethroic acid-2_temp_15_injections-1\run_29.D,33.5266189575196,21.7183227539063,1523.44934082031,129.776138305664,0
0,D:/Chemstation/1/Data/2023-10-24-pyrethroic acid-2_temp_15_injections-1\run_30.D,32.7632675170899,21.6818714141846,1518.55798339844,130.040084838867,0
