cup_index,used
A1,False
A2,False
A3,False
A4,False
B1,False
B2,False
B3,False
B4,False
C1,False
C2,False
C3,False
C4,False
D1,True
D2,True
D3,True
D4,True
E1,True
E2,True
E3,True
E4,True
F1,False
F2,False
F3,False
F4,False
