isomer_210,isomer_230,product_210,product_240,product_254
30.7647228240967,20.3617916107178,6516.1611328125,567.232971191407,0.0
32.019375483195,20.914077123006198,6674.519856770833,584.7529296875003,0.0
33.65966796875,21.5873527526856,6676.501953125,581.761596679688,0.0
25.4377676645915,15.311701456705734,844.9142659505213,71.27559153238934,0.0
25.50415865580243,15.689225832621268,874.4186401367191,73.78441365559897,0.0
28.3436679840088,16.9393348693848,892.075134277344,74.9915008544922,0.0
