,sample,isomer,product_230,product_254
0,D:/Chemstation/1/Data/2023-06-15-pyrethroic acid-standard_curve_4-1\run_1.D,203.711257934571,7722.5361328125,61.0145797729492
0,D:/Chemstation/1/Data/2023-06-15-pyrethroic acid-standard_curve_4-1\run_2.D,66.5792770385743,3489.056640625,22.5858001708985
0,D:/Chemstation/1/Data/2023-06-15-pyrethroic acid-standard_curve_4-1\run_3.D,21.7597446441651,1226.0380859375,0.0
0,D:/Chemstation/1/Data/2023-06-15-pyrethroic acid-standard_curve_4-1\run_4.D,0.0,417.271057128906,0.0
