,solvent_A,solvent_B,solvent_ratio,temperature,date,compound_290,compound_254,compound_350,solid_loading_mg_per_ml,solvent_rank
0,toluene,None,1,25,06-19-2023,0.0,0.0,5051.6,156.853701296082,high
1,DCM,None,1,25,06-19-2023,0.0,0.0,6981.0,216.72108328497978,high
2,acetonitrile,None,1,25,06-19-2023,5628.7,3653.7,1579.2,49.108548803986615,mid
3,acetone,None,1,25,06-19-2023,0.0,0.0,6415.9,199.18658677729545,high
4,heptane,None,1,25,06-19-2023,69.8,45.2,19.2,0.703285041842627,low
5,water,None,1,25,06-19-2023,82.5,52.4,22.1,0.7932691860158434,low
6,ethyl acetate,None,1,25,06-19-2023,0.0,0.0,6387.9,198.31777435079545,high
7,isopropanol,None,1,25,06-19-2023,437.5,277.9,117.9,3.765848845255199,low
