Unnamed: 0,solvent_A,solvent_B,solvent_ratio,temperature,date,isomer,product_230,product_254,solid_loading_mg_per_ml,solvent_rank
0.0,cumene,None,1.0,25,06-30-2023,50.99521255,7076.837891,45.64350891,145.10530372517204,high
1.0,DCM,None,1.0,25,06-30-2023,43.28937531,6036.164551,38.82995224,123.57878288140034,high
2.0,acetonitrile,None,1.0,25,06-30-2023,44.26735306,5733.01416,36.73641586,117.3080608787986,high
3.0,acetone,None,1.0,25,06-30-2023,52.39929962,7009.033203,44.58356857,143.7027511916965,high
4.0,heptane,None,1.0,25,06-30-2023,0.0,463.7185669,3.6,8.311705291500227,mid
5.0,water,None,1.0,25,06-30-2023,0.0,11.94816875,0.0,-1.0332490938739676,low
6.0,isopropyl acetate,None,1.0,25,06-30-2023,87.94776154,6469.317871,41.40744781,132.53863955604996,high
7.0,isopropanol,None,1.0,25,06-30-2023,91.52781677,6801.807129,43.40776062,139.41624145816763,high
,water,isopropyl acetate,0.9,25,07-07-2023,0.0,21.5,0.0,-0.8356676947969865,low
,water,isopropanol,0.9,25,07-07-2023,0.0,21.6,0.0,-0.8335991762699555,low
,heptane,isopropanol,0.9,25,07-07-2023,40.57,4930.0,31.37,100.69756420451672,high
,water,acetonitrile,0.9,25,07-07-2023,0.0,12.9,0.0,-1.0135602881216474,low
