,sample,isomer_210,isomer_230,product_210,product_240,product_254
0,D:/Chemstation/1/Data/2023-11-27-pyrethroic acid-2_temp_9_injections-1\run_1.D,90.9228286743164,60.0710411071778,13662.36328125,1645.84936523438,0
0,D:/Chemstation/1/Data/2023-11-27-pyrethroic acid-2_temp_9_injections-1\run_2.D,88.5288848876953,58.6555938720703,13494.939453125,1593.96008300781,0
0,D:/Chemstation/1/Data/2023-11-27-pyrethroic acid-2_temp_9_injections-1\run_3.D,86.6456146240235,56.8750190734864,3671.81640625,1560.10974121094,0
0,D:/Chemstation/1/Data/2023-11-27-pyrethroic acid-2_temp_9_injections-1\run_4.D,87.8535232543945,57.7077178955078,13443.3212890625,1589.17944335938,0
0,D:/Chemstation/1/Data/2023-11-27-pyrethroic acid-2_temp_9_injections-1\run_5.D,88.1739959716797,57.515911102295,13512.70703125,1599.50354003906,0
0,D:/Chemstation/1/Data/2023-11-27-pyrethroic acid-2_temp_9_injections-1\run_6.D,89.1863327026367,58.8713836669922,13730.5625,1637.56884765625,0
0,D:/Chemstation/1/Data/2023-11-27-pyrethroic acid-2_temp_9_injections-1\run_7.D,95.355712890625,64.4417266845703,14297.798828125,1758.06311035156,0
0,D:/Chemstation/1/Data/2023-11-27-pyrethroic acid-2_temp_9_injections-1\run_8.D,85.9229507446289,56.4610366821289,2949.42016601563,1583.12182617188,0
0,D:/Chemstation/1/Data/2023-11-27-pyrethroic acid-2_temp_9_injections-1\run_9.D,86.7245864868164,57.1943168640137,13554.705078125,1602.51916503906,0
0,D:/Chemstation/1/Data/2023-11-27-pyrethroic acid-2_temp_9_injections-1\run_10.D,63.261947631836,41.8205680847168,1074.52185058594,91.794921875,0
0,D:/Chemstation/1/Data/2023-11-27-pyrethroic acid-2_temp_9_injections-1\run_11.D,62.8299293518067,41.5093498229981,1058.13195800781,90.6931915283203,0
0,D:/Chemstation/1/Data/2023-11-27-pyrethroic acid-2_temp_9_injections-1\run_12.D,73.4322128295899,48.021957397461,1205.56433105469,103.123603820801,0
0,D:/Chemstation/1/Data/2023-11-27-pyrethroic acid-2_temp_9_injections-1\run_13.D,61.2317276000977,42.7107353210449,1007.13232421875,86.3276748657227,0
0,D:/Chemstation/1/Data/2023-11-27-pyrethroic acid-2_temp_9_injections-1\run_14.D,67.3189849853516,47.0964584350586,1107.93981933594,95.0258026123047,0
0,D:/Chemstation/1/Data/2023-11-27-pyrethroic acid-2_temp_9_injections-1\run_15.D,63.0092124938965,44.2707061767578,1043.77978515625,89.5589675903321,0
0,D:/Chemstation/1/Data/2023-11-27-pyrethroic acid-2_temp_9_injections-1\run_16.D,58.947250366211,40.4510612487793,1011.43029785156,86.4632644653321,0
0,D:/Chemstation/1/Data/2023-11-27-pyrethroic acid-2_temp_9_injections-1\run_17.D,58.5224838256836,40.9419746398926,1019.07879638672,87.2832107543946,0
0,D:/Chemstation/1/Data/2023-11-27-pyrethroic acid-2_temp_9_injections-1\run_18.D,59.1708374023438,40.7279891967774,1019.36987304688,87.1007690429688,0
