,sample,A,minor,major,B,BHT,D,E
0,D:/Chemstation/1/Data/2023-06-19-dasabuvir-2_temp_6_injections-1\run_1.D,0,100.296028137207,735.779724121094,67.3765716552735,305.991119384766,67.2302551269532,208.148803710938
0,D:/Chemstation/1/Data/2023-06-19-dasabuvir-2_temp_6_injections-1\run_2.D,0,0.0,839.810424804688,67.9483184814453,318.502990722656,77.0353317260742,230.374145507813
0,D:/Chemstation/1/Data/2023-06-19-dasabuvir-2_temp_6_injections-1\run_3.D,0,105.867301940918,0.0,67.3880310058594,306.478240966797,68.9666213989258,220.615280151367
0,D:/Chemstation/1/Data/2023-06-19-dasabuvir-2_temp_6_injections-1\run_4.D,0,130.276321411133,0.0,81.0515594482422,329.377655029297,78.4959716796875,227.291061401367
0,D:/Chemstation/1/Data/2023-06-19-dasabuvir-2_temp_6_injections-1\run_5.D,0,121.817329406739,922.555236816407,81.619010925293,322.880676269531,80.4764938354492,247.799545288086
0,D:/Chemstation/1/Data/2023-06-19-dasabuvir-2_temp_6_injections-1\run_6.D,0,131.128311157227,997.493713378906,80.79052734375,332.455322265625,86.9435806274414,270.253479003907
0,D:/Chemstation/1/Data/2023-06-19-dasabuvir-2_temp_6_injections-1\run_7.D,0,94.1241607666016,470.995300292969,69.0776519775391,309.384826660156,70.7843704223633,0.0
0,D:/Chemstation/1/Data/2023-06-19-dasabuvir-2_temp_6_injections-1\run_8.D,108.830665588379,185.512145996094,536.654846191407,78.5348434448243,326.936767578125,79.8783340454102,261.590026855469
0,D:/Chemstation/1/Data/2023-06-19-dasabuvir-2_temp_6_injections-1\run_9.D,0,174.857788085938,506.515350341797,73.7559661865235,312.191009521485,80.0603408813477,223.323272705078
0,D:/Chemstation/1/Data/2023-06-19-dasabuvir-2_temp_6_injections-1\run_10.D,0,180.6337890625,480.230712890625,76.7654113769531,320.682342529297,82.7869186401368,248.7197265625
0,D:/Chemstation/1/Data/2023-06-19-dasabuvir-2_temp_6_injections-1\run_11.D,0,184.579620361328,476.416229248047,80.5904388427735,313.691650390625,80.5514755249024,248.998092651367
0,D:/Chemstation/1/Data/2023-06-19-dasabuvir-2_temp_6_injections-1\run_12.D,0,114.663093566895,527.817810058594,84.4392013549805,334.403747558594,88.3556442260742,253.09359741211
