isomer_210,isomer_230,product_210,product_240,product_254
46.66692479451499,32.2724285125733,7896.975748697917,744.1581827799479,0.0
57.4669532775879,34.6403477986654,7942.9765625,735.8462117513023,0.0
52.74798711140954,32.36471176147463,7843.066731770833,722.218180338542,0.0
44.381099700927734,27.319524129231798,1598.5070393880233,135.512471516927,0.0
48.61783345540366,29.2905724843343,1672.5662027994802,143.487004597982,0.0
44.08371734619146,27.147301991780598,1719.4687906901065,138.04995727539065,0.0
