,sample,isomer_210,isomer_230,product_210,product_240,product_254
0,D:/Chemstation/1/Data/2023-10-04-pyrethroic acid-wash_5_samples_3_duplicates-7\run_1.D,31.2853679656983,16.2348461151123,2777.65795898438,252.230865478516,0
0,D:/Chemstation/1/Data/2023-10-04-pyrethroic acid-wash_5_samples_3_duplicates-7\run_2.D,31.6850509643555,16.3299903869629,2827.21044921875,256.076904296875,0
0,D:/Chemstation/1/Data/2023-10-04-pyrethroic acid-wash_5_samples_3_duplicates-7\run_3.D,31.4078426361084,16.2114601135254,2785.55419921875,252.169479370117,0
0,D:/Chemstation/1/Data/2023-10-04-pyrethroic acid-wash_5_samples_3_duplicates-7\run_4.D,0.0,0.0,2338.6708984375,213.124114990235,0
0,D:/Chemstation/1/Data/2023-10-04-pyrethroic acid-wash_5_samples_3_duplicates-7\run_5.D,0.0,0.0,2339.40209960938,212.961151123047,0
0,D:/Chemstation/1/Data/2023-10-04-pyrethroic acid-wash_5_samples_3_duplicates-7\run_6.D,0.0,0.0,2344.29150390625,213.25228881836,0
0,D:/Chemstation/1/Data/2023-10-04-pyrethroic acid-wash_5_samples_3_duplicates-7\run_7.D,0.0,0.0,2280.4501953125,207.838592529297,0
0,D:/Chemstation/1/Data/2023-10-04-pyrethroic acid-wash_5_samples_3_duplicates-7\run_8.D,0.0,0.0,2232.96362304688,203.173217773438,0
0,D:/Chemstation/1/Data/2023-10-04-pyrethroic acid-wash_5_samples_3_duplicates-7\run_9.D,0.0,0.0,2319.99633789063,211.141860961914,0
0,D:/Chemstation/1/Data/2023-10-04-pyrethroic acid-wash_5_samples_3_duplicates-7\run_10.D,0.0,0.0,2072.45703125,188.772521972656,0
0,D:/Chemstation/1/Data/2023-10-04-pyrethroic acid-wash_5_samples_3_duplicates-7\run_11.D,0.0,0.0,2149.55029296875,195.818603515625,0
0,D:/Chemstation/1/Data/2023-10-04-pyrethroic acid-wash_5_samples_3_duplicates-7\run_12.D,0.0,0.0,2182.451171875,198.66357421875,0
0,D:/Chemstation/1/Data/2023-10-04-pyrethroic acid-wash_5_samples_3_duplicates-7\run_13.D,0.0,0.0,2217.4072265625,201.809616088867,0
0,D:/Chemstation/1/Data/2023-10-04-pyrethroic acid-wash_5_samples_3_duplicates-7\run_14.D,0.0,0.0,2203.63232421875,200.61833190918,0
0,D:/Chemstation/1/Data/2023-10-04-pyrethroic acid-wash_5_samples_3_duplicates-7\run_15.D,0.0,0.0,2238.92553710938,203.748352050781,0
