,sample,isomer_210,isomer_230,product_210,product_240,product_254
0,D:/Chemstation/1/Data/2023-10-19-pyrethroic acid-solubility_5-5\run_1.D,27.2581825256348,16.7559680938721,1506.58044433594,113.874938964844,0
0,D:/Chemstation/1/Data/2023-10-19-pyrethroic acid-solubility_5-5\run_2.D,25.9339065551758,15.9751272201538,1454.61535644531,109.092758178711,0
0,D:/Chemstation/1/Data/2023-10-19-pyrethroic acid-solubility_5-5\run_3.D,28.352128982544,18.0058650970459,1562.76770019531,117.45263671875,0
0,D:/Chemstation/1/Data/2023-10-19-pyrethroic acid-solubility_5-5\run_4.D,28.6064548492432,17.4118461608887,1545.68737792969,115.892616271973,0
0,D:/Chemstation/1/Data/2023-10-19-pyrethroic acid-solubility_5-5\run_5.D,26.7722854614258,16.5375423431397,1494.18566894531,111.375778198242,0
