,sample,isomer_210,isomer_230,product_210,product_240,product_254
0,D:/Chemstation/1/Data/2023-10-13-pyrethroic acid-2_temp_6_injections-1\run_1.D,50.7965888977051,34.904842376709,8098.64111328125,856.588806152344,0
0,D:/Chemstation/1/Data/2023-10-13-pyrethroic acid-2_temp_6_injections-1\run_2.D,52.7385940551758,36.3914299011231,8319.4599609375,895.294677734375,25.7041549682617
0,D:/Chemstation/1/Data/2023-10-13-pyrethroic acid-2_temp_6_injections-1\run_3.D,52.6824417114258,36.200855255127,8261.107421875,887.051452636719,0
0,D:/Chemstation/1/Data/2023-10-13-pyrethroic acid-2_temp_6_injections-1\run_4.D,54.3446884155274,37.4274711608887,8471.4150390625,923.885925292969,26.5507469177246
0,D:/Chemstation/1/Data/2023-10-13-pyrethroic acid-2_temp_6_injections-1\run_5.D,55.2110671997071,38.2708625793457,8578.173828125,945.573059082031,26.9308109283447
0,D:/Chemstation/1/Data/2023-10-13-pyrethroic acid-2_temp_6_injections-1\run_6.D,54.7254524230957,37.7361221313477,8491.431640625,934.372253417969,26.7301559448242
0,D:/Chemstation/1/Data/2023-10-13-pyrethroic acid-2_temp_6_injections-1\run_7.D,46.8707847595215,30.2661476135254,1696.16845703125,154.113235473633,0
0,D:/Chemstation/1/Data/2023-10-13-pyrethroic acid-2_temp_6_injections-1\run_8.D,28.8545608520508,18.6931037902832,1037.42333984375,92.7729187011719,0
0,D:/Chemstation/1/Data/2023-10-13-pyrethroic acid-2_temp_6_injections-1\run_9.D,0.0,0.0,1256.04626464844,113.565139770508,0
0,D:/Chemstation/1/Data/2023-10-13-pyrethroic acid-2_temp_6_injections-1\run_10.D,34.3383369445801,22.6955261230469,2018.66418457031,179.281661987305,0
0,D:/Chemstation/1/Data/2023-10-13-pyrethroic acid-2_temp_6_injections-1\run_11.D,14.7941999435425,10.2316827774048,1905.94812011719,170.853988647461,0
0,D:/Chemstation/1/Data/2023-10-13-pyrethroic acid-2_temp_6_injections-1\run_12.D,46.4776420593262,29.2042560577393,1462.78332519531,132.913772583008,0
