,sample,isomer_210,isomer_230,product_210,product_240,product_254
0,D:/Chemstation/1/Data/2023-12-06-pyrethroic acid-2_temp_9_injections-1\run_2.D,29.0369529724121,19.3287734985352,6220.18310546875,541.973083496094,0
0,D:/Chemstation/1/Data/2023-12-06-pyrethroic acid-2_temp_9_injections-1\run_3.D,33.1769409179688,21.7706832885742,6818.9658203125,602.269348144532,0
0,D:/Chemstation/1/Data/2023-12-06-pyrethroic acid-2_temp_9_injections-1\run_4.D,30.7647228240967,20.3617916107178,6516.1611328125,567.232971191407,0
0,D:/Chemstation/1/Data/2023-12-06-pyrethroic acid-2_temp_9_injections-1\run_5.D,31.6052722930908,20.5726757049561,6600.90673828125,577.107604980469,0
0,D:/Chemstation/1/Data/2023-12-06-pyrethroic acid-2_temp_9_injections-1\run_6.D,32.9054870605469,21.2069396972656,6763.38916015625,591.366882324219,0
0,D:/Chemstation/1/Data/2023-12-06-pyrethroic acid-2_temp_9_injections-1\run_7.D,31.5473670959473,20.9626159667969,6659.263671875,585.784301757813,0
0,D:/Chemstation/1/Data/2023-12-06-pyrethroic acid-2_temp_9_injections-1\run_8.D,30.4711875915528,20.2014579772949,6222.83740234375,538.591247558594,0
0,D:/Chemstation/1/Data/2023-12-06-pyrethroic acid-2_temp_9_injections-1\run_9.D,33.4594383239746,21.656328201294,6678.56396484375,581.588806152344,0
0,D:/Chemstation/1/Data/2023-12-06-pyrethroic acid-2_temp_9_injections-1\run_10.D,33.8598976135254,21.5183773040772,6674.43994140625,581.934387207032,0
0,D:/Chemstation/1/Data/2023-12-06-pyrethroic acid-2_temp_9_injections-1\run_11.D,24.5793972015381,15.1543245315552,845.849243164063,71.5077056884766,0
0,D:/Chemstation/1/Data/2023-12-06-pyrethroic acid-2_temp_9_injections-1\run_12.D,25.9143981933594,15.3230810165405,842.733032226563,70.9468994140625,0
0,D:/Chemstation/1/Data/2023-12-06-pyrethroic acid-2_temp_9_injections-1\run_13.D,25.819507598877,15.4576988220215,846.160522460938,71.3721694946289,0
0,D:/Chemstation/1/Data/2023-12-06-pyrethroic acid-2_temp_9_injections-1\run_14.D,24.4932250976563,15.1057395935059,848.557800292969,71.710075378418,0
0,D:/Chemstation/1/Data/2023-12-06-pyrethroic acid-2_temp_9_injections-1\run_15.D,25.8761405944824,16.0152816772461,871.328857421875,73.4614028930664,0
0,D:/Chemstation/1/Data/2023-12-06-pyrethroic acid-2_temp_9_injections-1\run_16.D,26.1431102752686,15.9466562271118,903.369262695313,76.1817626953125,0
0,D:/Chemstation/1/Data/2023-12-06-pyrethroic acid-2_temp_9_injections-1\run_17.D,28.3436679840088,16.9393348693848,892.075134277344,74.9915008544922,0
0,D:/Chemstation/1/Data/2023-12-06-pyrethroic acid-2_temp_9_injections-1\run_18.D,29.682357788086,18.4424228668213,1294.55419921875,109.074806213379,0
0,D:/Chemstation/1/Data/2023-12-06-pyrethroic acid-2_temp_9_injections-1\run_19.D,25.6601982116699,15.8348512649536,819.682495117188,69.1304244995118,0
