,sample,N1,A,N3,B,C,D
0,D:/Chemstation/1/Data/2023-09-05-dasabuvir-wash_5_samples_3_duplicates-3\run_1.D,267.550170898438,90.8867874145508,163.764053344727,5.28872394561768,127.895736694336,352.411041259766
0,D:/Chemstation/1/Data/2023-09-05-dasabuvir-wash_5_samples_3_duplicates-3\run_2.D,258.421783447266,87.7115859985352,157.981277465821,0.0,122.341407775879,340.351165771485
0,D:/Chemstation/1/Data/2023-09-05-dasabuvir-wash_5_samples_3_duplicates-3\run_3.D,259.980133056641,88.2354736328125,158.996627807617,0.0,123.731346130371,343.17822265625
0,D:/Chemstation/1/Data/2023-09-05-dasabuvir-wash_5_samples_3_duplicates-3\run_4.D,162.987930297852,39.3034057617188,36.7290115356446,0.0,10.0750846862793,19.8406314849854
0,D:/Chemstation/1/Data/2023-09-05-dasabuvir-wash_5_samples_3_duplicates-3\run_5.D,157.994049072266,38.5973052978516,36.0745544433594,0.0,9.83447933197022,20.033432006836
0,D:/Chemstation/1/Data/2023-09-05-dasabuvir-wash_5_samples_3_duplicates-3\run_6.D,159.010757446289,38.8736267089844,36.3216705322266,0.0,9.5975399017334,20.3728160858155
0,D:/Chemstation/1/Data/2023-09-05-dasabuvir-wash_5_samples_3_duplicates-3\run_7.D,141.991317749024,21.9023189544678,24.0251979827881,0.0,0.0,0.0
0,D:/Chemstation/1/Data/2023-09-05-dasabuvir-wash_5_samples_3_duplicates-3\run_8.D,141.172576904297,22.051794052124,24.2951583862305,0.0,0.0,0.0
0,D:/Chemstation/1/Data/2023-09-05-dasabuvir-wash_5_samples_3_duplicates-3\run_9.D,139.881210327149,21.8926944732666,24.1212997436524,0.0,0.0,0.0
0,D:/Chemstation/1/Data/2023-09-05-dasabuvir-wash_5_samples_3_duplicates-3\run_10.D,125.48722076416,12.01016330719,12.2679882049561,0.0,0.0,0.0
0,D:/Chemstation/1/Data/2023-09-05-dasabuvir-wash_5_samples_3_duplicates-3\run_11.D,123.084381103516,12.2417678833008,12.7851314544678,0.0,0.0,0.0
0,D:/Chemstation/1/Data/2023-09-05-dasabuvir-wash_5_samples_3_duplicates-3\run_12.D,126.453681945801,12.4397106170655,12.9459447860718,0.0,0.0,0.0
0,D:/Chemstation/1/Data/2023-09-05-dasabuvir-wash_5_samples_3_duplicates-3\run_13.D,126.158149719238,7.88462543487549,7.98386192321778,0.0,0.0,0.0
0,D:/Chemstation/1/Data/2023-09-05-dasabuvir-wash_5_samples_3_duplicates-3\run_14.D,123.862129211426,8.08625602722168,8.45497608184815,0.0,0.0,0.0
0,D:/Chemstation/1/Data/2023-09-05-dasabuvir-wash_5_samples_3_duplicates-3\run_15.D,121.87516784668,7.92706394195557,8.16705799102783,0.0,0.0,0.0
