,sample,isomer_210,isomer_230,product_210,product_240,product_254
0,D:/Chemstation/1/Data/2023-10-03-pyrethroic acid-2_temp_6_injections-1\run_1.D,56.9893493652344,38.6576766967774,7821.80322265625,829.525573730469,0
0,D:/Chemstation/1/Data/2023-10-03-pyrethroic acid-2_temp_6_injections-1\run_2.D,57.2753105163574,38.3289680480957,7813.521484375,825.507141113282,0
0,D:/Chemstation/1/Data/2023-10-03-pyrethroic acid-2_temp_6_injections-1\run_3.D,60.3786010742188,40.4266433715821,8104.462890625,870.415283203125,0
0,D:/Chemstation/1/Data/2023-10-03-pyrethroic acid-2_temp_6_injections-1\run_4.D,63.9315719604493,42.1284370422363,8130.89599609375,869.702941894531,25.4105987548828
0,D:/Chemstation/1/Data/2023-10-03-pyrethroic acid-2_temp_6_injections-1\run_5.D,66.8697814941407,44.0455665588379,8385.9619140625,907.010986328125,0
0,D:/Chemstation/1/Data/2023-10-03-pyrethroic acid-2_temp_6_injections-1\run_6.D,63.072624206543,41.7117080688477,8152.3525390625,865.348022460938,0
0,D:/Chemstation/1/Data/2023-10-03-pyrethroic acid-2_temp_6_injections-1\run_7.D,55.6477355957032,35.4360542297364,1834.126953125,166.901489257813,0
0,D:/Chemstation/1/Data/2023-10-03-pyrethroic acid-2_temp_6_injections-1\run_8.D,53.4449272155762,34.2407913208008,1777.79089355469,161.844223022461,0
0,D:/Chemstation/1/Data/2023-10-03-pyrethroic acid-2_temp_6_injections-1\run_9.D,53.1989097595215,34.0093269348145,1774.83642578125,161.591186523438,0
0,D:/Chemstation/1/Data/2023-10-03-pyrethroic acid-2_temp_6_injections-1\run_10.D,56.1834526062012,35.1757354736328,1796.83068847656,163.534713745117,0
0,D:/Chemstation/1/Data/2023-10-03-pyrethroic acid-2_temp_6_injections-1\run_11.D,58.1077842712403,36.4784355163574,1857.55187988281,169.098083496094,0
0,D:/Chemstation/1/Data/2023-10-03-pyrethroic acid-2_temp_6_injections-1\run_12.D,56.6614570617676,35.4588928222656,1799.07092285156,163.874008178711,0
