,sample,isomer_210,isomer_230,product_210,product_240,product_254
0,D:/Chemstation/1/Data/2023-11-06-pyrethroic acid-solubility_15-1\run_1.D,43.43,0,0,285.3,0
0,D:/Chemstation/1/Data/2023-11-06-pyrethroic acid-solubility_15-1\run_2.D,37.85,0,0,0,0
0,D:/Chemstation/1/Data/2023-11-06-pyrethroic acid-solubility_15-1\run_3.D,0,0,0,0,0
0,D:/Chemstation/1/Data/2023-11-06-pyrethroic acid-solubility_15-1\run_4.D,0,0,0,0,0
0,D:/Chemstation/1/Data/2023-11-06-pyrethroic acid-solubility_15-1\run_5.D,0,0,0,0,0
0,D:/Chemstation/1/Data/2023-11-06-pyrethroic acid-solubility_15-1\run_6.D,0,0,0,0,0
0,D:/Chemstation/1/Data/2023-11-06-pyrethroic acid-solubility_15-1\run_7.D,0,0,0,0,0
0,D:/Chemstation/1/Data/2023-11-06-pyrethroic acid-solubility_15-1\run_8.D,0,0,0,0,0
0,D:/Chemstation/1/Data/2023-11-06-pyrethroic acid-solubility_15-1\run_9.D,0,0,0,0,0
0,D:/Chemstation/1/Data/2023-11-06-pyrethroic acid-solubility_15-1\run_10.D,3072.162109375,9234.58984375,0,0,0
0,D:/Chemstation/1/Data/2023-11-06-pyrethroic acid-solubility_15-1\run_11.D,0,0,0,0,0
0,D:/Chemstation/1/Data/2023-11-06-pyrethroic acid-solubility_15-1\run_12.D,2635.18627929688,0,0,0,0
0,D:/Chemstation/1/Data/2023-11-06-pyrethroic acid-solubility_15-1\run_13.D,12437.109375,0,0,0,0
0,D:/Chemstation/1/Data/2023-11-06-pyrethroic acid-solubility_15-1\run_14.D,0,0,0,0,0
0,D:/Chemstation/1/Data/2023-11-06-pyrethroic acid-solubility_15-1\run_15.D,0,0,0,0,0
