,sample,isomer,product_230,product_254
0,D:/Chemstation/1/Data/2023-06-30-pyrethroic acid-standard_curve_4-2\run_1.D,139.392593383789,10441.9716796875,66.6940841674805
0,D:/Chemstation/1/Data/2023-06-30-pyrethroic acid-standard_curve_4-2\run_2.D,46.6530990600586,3758.94873046875,24.4312133789063
0,D:/Chemstation/1/Data/2023-06-30-pyrethroic acid-standard_curve_4-2\run_3.D,15.8286933898926,1334.19287109375,9.35656261444092
0,D:/Chemstation/1/Data/2023-06-30-pyrethroic acid-standard_curve_4-2\run_4.D,0.0,455.345458984375,0.0
