,sample,isomer,product_230,product_254
0,D:/Chemstation/1/Data/2023-06-30-pyrethroic acid-standard_curve_4-3\run_1.D,239.765991210938,0,0
0,D:/Chemstation/1/Data/2023-06-30-pyrethroic acid-standard_curve_4-3\run_2.D,63.4456825256348,4988.31787109375,32.2741813659668
0,D:/Chemstation/1/Data/2023-06-30-pyrethroic acid-standard_curve_4-3\run_3.D,15.7547445297241,0,0
0,D:/Chemstation/1/Data/2023-06-30-pyrethroic acid-standard_curve_4-3\run_4.D,0.0,0,0
