,sample,isomer,product_230,product_254
0,D:/Chemstation/1/Data/2023-06-30-pyrethroic acid-solubility_8-7\run_1.D,50.99521255,7076.837891,45.64350891
0,D:/Chemstation/1/Data/2023-06-30-pyrethroic acid-solubility_8-7\run_2.D,43.28937531,6036.164551,38.82995224
0,D:/Chemstation/1/Data/2023-06-30-pyrethroic acid-solubility_8-7\run_3.D,44.26735306,5733.01416,36.73641586
0,D:/Chemstation/1/Data/2023-06-30-pyrethroic acid-solubility_8-7\run_4.D,52.39929962,7009.033203,44.58356857
0,D:/Chemstation/1/Data/2023-06-30-pyrethroic acid-solubility_8-7\run_5.D,0,463.7185669,0
0,D:/Chemstation/1/Data/2023-06-30-pyrethroic acid-solubility_8-7\run_6.D,0,11.94816875,0
0,D:/Chemstation/1/Data/2023-06-30-pyrethroic acid-solubility_8-7\run_7.D,87.94776154,6469.317871,41.40744781
0,D:/Chemstation/1/Data/2023-06-30-pyrethroic acid-solubility_8-7\run_8.D,91.52781677,6801.807129,43.40776062
